{"photos":{"page":1,"pages":1845,"perpage":100,"total":"184478","photo":[{"id":"49243546438","owner":"26285422@N08","secret":"ff9c01920a","server":"65535","farm":66,"title":"sunlight_kitten","ispublic":1,"isfriend":0,"isfamily":0},{"id":"49243683603","owner":"50946698@N04","secret":"07558f5fc7","server":"65535","farm":66,"title":"Christmas Tea","ispublic":1,"isfriend":0,"isfamily":0},{"id":"49244264082","owner":"8241636@N05","secret":"e9582ab1a4","server":"65535","farm":66,"title":"photo - Bailey at 1 mo. old - 1987","ispublic":1,"isfriend":0,"isfamily":0},{"id":"49243514643","owner":"25139520@N04","secret":"5c79e3cb93","server":"65535","farm":66,"title":"Evil Food","ispublic":1,"isfriend":0,"isfamily":0},{"id":"49243512383","owner":"19872565@N00","secret":"ecca1eed16","server":"65535","farm":66,"title":"20151215_7695c","ispublic":1,"isfriend":0,"isfamily":0},{"id":"49243927081","owner":"106007773@N05","secret":"a8c1ee9222","server":"65535","farm":66,"title":"Kittens of Pomelo & Izzie","ispublic":1,"isfriend":0,"isfamily":0},{"id":"49244142657","owner":"106007773@N05","secret":"79441a5a00","server":"65535","farm":66,"title":"Kittens of Pomelo & Izzie","ispublic":1,"isfriend":0,"isfamily":0},{"id":"49244142587","owner":"106007773@N05","secret":"ee8454134b","server":"65535","farm":66,"title":"Kittens of Pomelo & Izzie","ispublic":1,"isfriend":0,"isfamily":0},{"id":"49244142512","owner":"106007773@N05","secret":"10e0ddd9ff","server":"65535","farm":66,"title":"Kittens of Pomelo & Izzie","ispublic":1,"isfriend":0,"isfamily":0},{"id":"49243926751","owner":"106007773@N05","secret":"238b760fa6","server":"65535","farm":66,"title":"Kittens of Pomelo & Izzie","ispublic":1,"isfriend":0,"isfamily":0},{"id":"49243926791","owner":"106007773@N05","secret":"a53a6e0422","server":"65535","farm":66,"title":"Kittens of Pomelo & Izzie","ispublic":1,"isfriend":0,"isfamily":0},{"id":"49244142332","owner":"106007773@N05","secret":"f869e413c1","server":"65535","farm":66,"title":"Kittens of Pomelo & Izzie","ispublic":1,"isfriend":0,"isfamily":0},{"id":"49243456568","owner":"106007773@N05","secret":"850f2f1074","server":"65535","farm":66,"title":"Kittens of Pomelo & Izzie","ispublic":1,"isfriend":0,"isfamily":0},{"id":"49243456533","owner":"106007773@N05","secret":"12513ea1ab","server":"65535","farm":66,"title":"Kittens of Pomelo & Izzie","ispublic":1,"isfriend":0,"isfamily":0},{"id":"49243912846","owner":"106007773@N05","secret":"06302d7871","server":"65535","farm":66,"title":"Kittens of Pomelo & Izzie","ispublic":1,"isfriend":0,"isfamily":0},{"id":"49243443048","owner":"106007773@N05","secret":"bd73d68910","server":"65535","farm":66,"title":"Kittens of Pomelo & Izzie","ispublic":1,"isfriend":0,"isfamily":0},{"id":"49243443068","owner":"106007773@N05","secret":"464596a684","server":"65535","farm":66,"title":"Kittens of Pomelo & Izzie","ispublic":1,"isfriend":0,"isfamily":0},{"id":"49244128782","owner":"106007773@N05","secret":"9f5e92df54","server":"65535","farm":66,"title":"Kittens of Pomelo & Izzie","ispublic":1,"isfriend":0,"isfamily":0},{"id":"49243912766","owner":"106007773@N05","secret":"d62be88a92","server":"65535","farm":66,"title":"Kittens of Pomelo & Izzie","ispublic":1,"isfriend":0,"isfamily":0},{"id":"49243442958","owner":"106007773@N05","secret":"138a10735b","server":"65535","farm":66,"title":"Kittens of Pomelo & Izzie","ispublic":1,"isfriend":0,"isfamily":0},{"id":"49243912671","owner":"106007773@N05","secret":"3734bd4733","server":"65535","farm":66,"title":"Kittens of Pomelo & Izzie","ispublic":1,"isfriend":0,"isfamily":0},{"id":"49243442843","owner":"106007773@N05","secret":"4018257ce0","server":"65535","farm":66,"title":"Kittens of Pomelo & Izzie","ispublic":1,"isfriend":0,"isfamily":0},{"id":"49244128712","owner":"106007773@N05","secret":"b6d2b6fc00","server":"65535","farm":66,"title":"Kittens of Pomelo & Izzie","ispublic":1,"isfriend":0,"isfamily":0},{"id":"49243912646","owner":"106007773@N05","secret":"2199dac0e5","server":"65535","farm":66,"title":"Kittens of Pomelo & Izzie","ispublic":1,"isfriend":0,"isfamily":0},{"id":"49243912301","owner":"106007773@N05","secret":"8fa503dd5a","server":"65535","farm":66,"title":"Kittens of Pomelo & Izzie","ispublic":1,"isfriend":0,"isfamily":0},{"id":"49243912286","owner":"106007773@N05","secret":"ef69109e86","server":"65535","farm":66,"title":"Kittens of Pomelo & Izzie","ispublic":1,"isfriend":0,"isfamily":0},{"id":"49243442453","owner":"106007773@N05","secret":"b13a665f24","server":"65535","farm":66,"title":"Kittens of Pomelo & Izzie","ispublic":1,"isfriend":0,"isfamily":0},{"id":"49243912166","owner":"106007773@N05","secret":"ced72066d8","server":"65535","farm":66,"title":"Kittens of Pomelo & Izzie","ispublic":1,"isfriend":0,"isfamily":0},{"id":"49243912211","owner":"106007773@N05","secret":"ec59fda30e","server":"65535","farm":66,"title":"Kittens of Pomelo & Izzie","ispublic":1,"isfriend":0,"isfamily":0},{"id":"49243912241","owner":"106007773@N05","secret":"b9cd5e4a1e","server":"65535","farm":66,"title":"Kittens of Pomelo & Izzie","ispublic":1,"isfriend":0,"isfamily":0},{"id":"49243442318","owner":"106007773@N05","secret":"6a8a56eceb","server":"65535","farm":66,"title":"Kittens of Pomelo & Izzie","ispublic":1,"isfriend":0,"isfamily":0},{"id":"49243442238","owner":"106007773@N05","secret":"12731669db","server":"65535","farm":66,"title":"Kittens of Pomelo & Izzie","ispublic":1,"isfriend":0,"isfamily":0},{"id":"49243978367","owner":"106007773@N05","secret":"e46f79e73a","server":"65535","farm":66,"title":"Kittens of Pomelo & Izzie","ispublic":1,"isfriend":0,"isfamily":0},{"id":"49243762876","owner":"106007773@N05","secret":"be70b30793","server":"65535","farm":66,"title":"Kittens of Pomelo & Izzie","ispublic":1,"isfriend":0,"isfamily":0},{"id":"49243290458","owner":"106007773@N05","secret":"f80cdec939","server":"65535","farm":66,"title":"Kittens of Pomelo & Izzie","ispublic":1,"isfriend":0,"isfamily":0},{"id":"49243762761","owner":"106007773@N05","secret":"bb4e281cae","server":"65535","farm":66,"title":"Kittens of Pomelo & Izzie","ispublic":1,"isfriend":0,"isfamily":0},{"id":"49243290378","owner":"106007773@N05","secret":"aa18fa1036","server":"65535","farm":66,"title":"Kittens of Pomelo & Izzie","ispublic":1,"isfriend":0,"isfamily":0},{"id":"49243978217","owner":"106007773@N05","secret":"9ecc028b9d","server":"65535","farm":66,"title":"Kittens of Pomelo & Izzie","ispublic":1,"isfriend":0,"isfamily":0},{"id":"49243978202","owner":"106007773@N05","secret":"a326c94ec9","server":"65535","farm":66,"title":"Kittens of Pomelo & Izzie","ispublic":1,"isfriend":0,"isfamily":0},{"id":"49243762631","owner":"106007773@N05","secret":"1f2c639708","server":"65535","farm":66,"title":"Kittens of Pomelo & Izzie","ispublic":1,"isfriend":0,"isfamily":0},{"id":"49243290203","owner":"106007773@N05","secret":"3f235361ee","server":"65535","farm":66,"title":"Kittens of Pomelo & Izzie","ispublic":1,"isfriend":0,"isfamily":0},{"id":"49243978022","owner":"106007773@N05","secret":"f216945d34","server":"65535","farm":66,"title":"Kittens of Pomelo & Izzie","ispublic":1,"isfriend":0,"isfamily":0},{"id":"49243977877","owner":"106007773@N05","secret":"becd3603a1","server":"65535","farm":66,"title":"Kittens of Pomelo & Izzie","ispublic":1,"isfriend":0,"isfamily":0},{"id":"49243762516","owner":"106007773@N05","secret":"a58a3063d6","server":"65535","farm":66,"title":"Kittens of Pomelo & Izzie","ispublic":1,"isfriend":0,"isfamily":0},{"id":"49243977802","owner":"106007773@N05","secret":"91e22abb2d","server":"65535","farm":66,"title":"Kittens of Pomelo & Izzie","ispublic":1,"isfriend":0,"isfamily":0},{"id":"49243289833","owner":"106007773@N05","secret":"c30ce58b92","server":"65535","farm":66,"title":"Kittens of Pomelo & Izzie","ispublic":1,"isfriend":0,"isfamily":0},{"id":"49243762201","owner":"106007773@N05","secret":"852e721c6a","server":"65535","farm":66,"title":"Kittens of Pomelo & Izzie","ispublic":1,"isfriend":0,"isfamily":0},{"id":"49243289653","owner":"106007773@N05","secret":"70a5daebf0","server":"65535","farm":66,"title":"Kittens of Pomelo & Izzie","ispublic":1,"isfriend":0,"isfamily":0},{"id":"49243289608","owner":"106007773@N05","secret":"1af9e7f9a5","server":"65535","farm":66,"title":"Kittens of Pomelo & Izzie","ispublic":1,"isfriend":0,"isfamily":0},{"id":"49243289568","owner":"106007773@N05","secret":"3ef3895398","server":"65535","farm":66,"title":"Kittens of Pomelo & Izzie","ispublic":1,"isfriend":0,"isfamily":0},{"id":"49243761936","owner":"106007773@N05","secret":"fc41f61017","server":"65535","farm":66,"title":"Kittens of Pomelo & Izzie","ispublic":1,"isfriend":0,"isfamily":0},{"id":"49243761851","owner":"106007773@N05","secret":"8f5c9ac9d4","server":"65535","farm":66,"title":"Kittens of Pomelo & Izzie","ispublic":1,"isfriend":0,"isfamily":0},{"id":"49243510237","owner":"124467751@N06","secret":"6c88340176","server":"65535","farm":66,"title":"Santa's merry little ho ho!","ispublic":1,"isfriend":0,"isfamily":0},{"id":"49242798728","owner":"128450614@N04","secret":"cf0a865da6","server":"65535","farm":66,"title":"December 15, 2019 - An adorable bobcat kitten. (Tony's Takes)","ispublic":1,"isfriend":0,"isfamily":0},{"id":"49243386932","owner":"38081097@N08","secret":"b08458015d","server":"65535","farm":66,"title":"Starry Night by Spoiled-kitten #illustration #portrait #drawing #painting - Popular Inspiration \u2014 Designspiration","ispublic":1,"isfriend":0,"isfamily":0},{"id":"49242582273","owner":"8297236@N03","secret":"b1e00857ca","server":"65535","farm":66,"title":"Black cat","ispublic":1,"isfriend":0,"isfamily":0},{"id":"49242889481","owner":"125979422@N02","secret":"8432a91d7c","server":"65535","farm":66,"title":"The birdwatcher that never gets to go outside","ispublic":1,"isfriend":0,"isfamily":0},{"id":"49242780946","owner":"7180367@N06","secret":"80341d6cc3","server":"65535","farm":66,"title":"a cat and her kittens","ispublic":1,"isfriend":0,"isfamily":0},{"id":"49242294948","owner":"186080277@N03","secret":"95fb1ecfac","server":"65535","farm":66,"title":"With his favorite human \ud83d\udc7c\ud83d\udc36https:\/\/instagram.com\/sugar_sweetdoggo?igshid=cgndmwy6cnnk#dog #doggy #cute #puppy #baby #kids #pet #animal #love #paw #doglife #cat #kitty #kitten #adorable #cute #lovely #vegan #crueltyfree #petlover","ispublic":1,"isfriend":0,"isfamily":0},{"id":"49242959992","owner":"186080277@N03","secret":"1592fc93ec","server":"65535","farm":66,"title":"Sugar with a pawfriend! Staring at candy bags outside of the car \ud83d\udc36\ud83c\udf67\ud83c\udf6c\ud83c\udf6d\ud83c\udf68\ud83c\udf69\ud83c\udf6b\ud83c\udf6a\ud83c\udf66https:\/\/instagram.com\/sugar_sweetdoggo?igshid=1hn1o407x6dv8 #dog #pet #vegan #love #kitten #puppy #dog","ispublic":1,"isfriend":0,"isfamily":0},{"id":"49242831867","owner":"159864271@N05","secret":"209c156a08","server":"65535","farm":66,"title":"\u2022\u263d Spoiled - Playful Gamer Collection @equal10 \u263e\u2022","ispublic":1,"isfriend":0,"isfamily":0},{"id":"49242649337","owner":"80780290@N05","secret":"19b12ef5d4","server":"65535","farm":66,"title":"J'aime \u2026 Candy Kitten, P.O.S.E, Crystal Store.","ispublic":1,"isfriend":0,"isfamily":0},{"id":"49241570448","owner":"34646324@N08","secret":"4965666d7d","server":"0","farm":0,"title":"Good news!","ispublic":1,"isfriend":0,"isfamily":0},{"id":"49241479198","owner":"33282118@N07","secret":"6aa713d0af","server":"65535","farm":66,"title":"crate of kittens","ispublic":1,"isfriend":0,"isfamily":0},{"id":"49241931216","owner":"78936832@N08","secret":"b915681931","server":"65535","farm":66,"title":"A kitten named Reima","ispublic":1,"isfriend":0,"isfamily":0},{"id":"49241336853","owner":"186108808@N06","secret":"7557d7fdd0","server":"0","farm":0,"title":"Savannah Kitten | Savannah Cat Breeder in Michigan","ispublic":1,"isfriend":0,"isfamily":0},{"id":"49241249463","owner":"185372771@N02","secret":"596ae2bc3d","server":"65535","farm":66,"title":">:3","ispublic":1,"isfriend":0,"isfamily":0},{"id":"49241705886","owner":"10655856@N04","secret":"4b968346fc","server":"65535","farm":66,"title":"Henri Vidal","ispublic":1,"isfriend":0,"isfamily":0},{"id":"49222633836","owner":"8740272@N04","secret":"08511e273b","server":"65535","farm":66,"title":"\u2745 Merry Christmas \u2745","ispublic":1,"isfriend":0,"isfamily":0},{"id":"49241884087","owner":"153237179@N02","secret":"182bb3cdb1","server":"65535","farm":66,"title":"LOST young DSH tabby cat. #Lakeview (#LawDriveSW). Micro chipped. No collar. Pls RT, watch, share help locate Joe. YYC Pet Recovery shared a post. Lost 6 month old kitten in Lakeview (Law Drive SW). Microchipped. No collar. His name is Joe. He sort of kno","ispublic":1,"isfriend":0,"isfamily":0},{"id":"49241040293","owner":"157572577@N03","secret":"753a61a453","server":"65535","farm":66,"title":"Hot Baseball Baby Yoda Boston Red Sox shirt_4","ispublic":1,"isfriend":0,"isfamily":0},{"id":"49241301156","owner":"66467025@N02","secret":"8f4212f22a","server":"65535","farm":66,"title":"Thinkin naughty thoughts","ispublic":1,"isfriend":0,"isfamily":0},{"id":"49240665158","owner":"186161186@N08","secret":"ca924f560b","server":"65535","farm":66,"title":"KATY TEBY SKOPIL #kts #love #cat #kitten #photo #mnkphoto #mate30 #malaysia #2019","ispublic":1,"isfriend":0,"isfamily":0},{"id":"49241356037","owner":"186161186@N08","secret":"dc950ff0c7","server":"65535","farm":66,"title":"KATY TEBY SKOPIL #kts #love #cat #kitten #photo #mnkphoto #mate30 #malaysia #2019","ispublic":1,"isfriend":0,"isfamily":0},{"id":"49241140336","owner":"186161186@N08","secret":"b7f002ea1e","server":"65535","farm":66,"title":"KATY TEBY SKOPIL #kts #love #cat #kitten #photo #mnkphoto #mate30 #malaysia #2019","ispublic":1,"isfriend":0,"isfamily":0},{"id":"49240974062","owner":"185979722@N07","secret":"74043ceac1","server":"65535","farm":66,"title":"Shark Kitty","ispublic":1,"isfriend":0,"isfamily":0},{"id":"49240543556","owner":"49998540@N03","secret":"58e00ea88b","server":"65535","farm":66,"title":"\u306d\u3053\u3058\u3085\u3046\u305f\u3093 #\u306d\u3053 #\u732b #cat #gatto #chat #kitten","ispublic":1,"isfriend":0,"isfamily":0},{"id":"49240420116","owner":"14384441@N00","secret":"d72f2e9196","server":"65535","farm":66,"title":"Pearly LOVED looking out this window when she was a kitten and could stand on the narrow sill","ispublic":1,"isfriend":0,"isfamily":0},{"id":"49240315276","owner":"55270141@N05","secret":"11c8b3d0d3","server":"65535","farm":66,"title":"Too cute!","ispublic":1,"isfriend":0,"isfamily":0},{"id":"49239751283","owner":"186086648@N07","secret":"42cbd08cf2","server":"65535","farm":66,"title":"Kitten on a street","ispublic":1,"isfriend":0,"isfamily":0},{"id":"49239737838","owner":"186086648@N07","secret":"8691f56b19","server":"65535","farm":66,"title":"Sleepy kitten","ispublic":1,"isfriend":0,"isfamily":0},{"id":"49239714143","owner":"186086648@N07","secret":"fe1486296f","server":"65535","farm":66,"title":"Kitten","ispublic":1,"isfriend":0,"isfamily":0},{"id":"49240355682","owner":"121232586@N08","secret":"c809fae310","server":"65535","farm":66,"title":"Stray Cat Ooozes Charm","ispublic":1,"isfriend":0,"isfamily":0},{"id":"49239962601","owner":"140197561@N03","secret":"7e77990a61","server":"65535","farm":66,"title":"kota","ispublic":1,"isfriend":0,"isfamily":0},{"id":"49239435523","owner":"156495159@N02","secret":"d6c4d92e5a","server":"65535","farm":66,"title":"Rabies Threat In North Carolina","ispublic":1,"isfriend":0,"isfamily":0},{"id":"49239904736","owner":"140197561@N03","secret":"2569b0e2de","server":"65535","farm":66,"title":"opal","ispublic":1,"isfriend":0,"isfamily":0},{"id":"49239408118","owner":"127070140@N08","secret":"e3d52bb213","server":"65535","farm":66,"title":"Good morning 191219","ispublic":1,"isfriend":0,"isfamily":0},{"id":"49239990977","owner":"25349482@N07","secret":"ded062b3f5","server":"65535","farm":66,"title":"New addition.","ispublic":1,"isfriend":0,"isfamily":0},{"id":"49239705947","owner":"157797619@N03","secret":"d1d2199733","server":"65535","farm":66,"title":"LOTD #Collab 'Like a shining Star'","ispublic":1,"isfriend":0,"isfamily":0},{"id":"49239373161","owner":"67164820@N06","secret":"3ce68665f1","server":"65535","farm":66,"title":"Looking in","ispublic":1,"isfriend":0,"isfamily":0},{"id":"49238890578","owner":"67164820@N06","secret":"42f7b37f65","server":"65535","farm":66,"title":"looking in 2","ispublic":1,"isfriend":0,"isfamily":0},{"id":"49239585557","owner":"67164820@N06","secret":"7437716bcc","server":"65535","farm":66,"title":"looking in 3","ispublic":1,"isfriend":0,"isfamily":0},{"id":"49238508468","owner":"157797619@N03","secret":"ce4a56402e","server":"65535","farm":66,"title":"LOTD #206 'Ho,Ho, Ho!'","ispublic":1,"isfriend":0,"isfamily":0},{"id":"49239169161","owner":"106123975@N05","secret":"674031b9c2","server":"65535","farm":66,"title":"Le petit chat \u00e0 la fen\u00eatre.","ispublic":1,"isfriend":0,"isfamily":0},{"id":"49238573978","owner":"51035644485@N01","secret":"af9950c7f5","server":"65535","farm":66,"title":"052","ispublic":1,"isfriend":0,"isfamily":0},{"id":"49239071526","owner":"186086285@N04","secret":"63259d2480","server":"65535","farm":66,"title":"kittens","ispublic":1,"isfriend":0,"isfamily":0},{"id":"49238879021","owner":"167692624@N04","secret":"ed5c010d2c","server":"65535","farm":66,"title":"post#271\u2665","ispublic":1,"isfriend":0,"isfamily":0},{"id":"49238361903","owner":"146170027@N04","secret":"ae720fb3eb","server":"65535","farm":66,"title":"KITTEN'S XMAS","ispublic":1,"isfriend":0,"isfamily":0},{"id":"49238296028","owner":"41301592@N02","secret":"23d24b0dd8","server":"65535","farm":66,"title":"James at six weeks old.","ispublic":1,"isfriend":0,"isfamily":0},{"id":"49238993077","owner":"41301592@N02","secret":"343d6b4de2","server":"65535","farm":66,"title":"Edward stalking the photographer.","ispublic":1,"isfriend":0,"isfamily":0}]},"stat":"ok"}
